Analysis of Sport Team Colors, Part 2
…
colors_nbanfl_tidy_ord2 <-
  nms_nbanfl %>% 
  select(name, league, slug) %>% 
  inner_join(colors_tidy_ord2, by = c("name", "league"))

colors_nbanfl_ord2_rgb_tidy <-
  colors_nbanfl_tidy_ord2 %>%
  add_rgb_cols() %>% 
  select(-hex) %>%
  tidyr::gather(rgb, value, red, green, blue)

colors_nbanfl_ord2_rgb_tidy

## # A tibble: 372 x 6
##    name              league slug  ord       rgb   value
##    <chr>             <chr>  <chr> <chr>     <chr> <int>
##  1 Atlanta Hawks     nba    ATL   primary   red     225
##  2 Atlanta Hawks     nba    ATL   secondary red     196
##  3 Boston Celtics    nba    BOS   primary   red       0
##  4 Boston Celtics    nba    BOS   secondary red     187
##  5 Brooklyn Nets     nba    BKN   primary   red       6
##  6 Brooklyn Nets     nba    BKN   secondary red       6
##  7 Charlotte Hornets nba    CHA   primary   red      29
##  8 Charlotte Hornets nba    CHA   secondary red       0
##  9 Chicago Bulls     nba    CHI   primary   red     206
## 10 Chicago Bulls     nba    CHI   secondary red       6
## # ... with 362 more rows
…
Its clear that the RGB and YUV are fairly similar according to both metricsEuclidean distance and cosine similarityand both are relatively dissimilar to HSL. However, all three color models show negative correlations with themselves when comparing the two metrics.

So, which color model and which metric should be used? It feels like Im back to the beginning of this explorationunsure of a valid method to compare colors. For the sake of moving on, Ill go ahead and use the RGB model, both because it is relatively similar to at least one other method (YUV) and because it is (probably) the most relatable scheme to people who dont know much about color theory. For metric, Ill choose Euclidean distance since my Google search (which makes the case for YUV) makes the assumption that Euclidean distance is being used. Additionally, a second Google search for euclidean distance vs.cosine similarity turns up an easy-to-follow technical write-up that implies (by my interpretation) that cosine similarity is probably not really appropriate for this color analysis.

colors_nbanfl_ord2_h2h <-
  colors_nbanfl_ord2_rgb_tidy %>% 
  do_pairwise_dist("euclidean")

## # A tibble: 248 x 4
##    ord     name1             name2                    value
##    <chr>   <chr>             <chr>                    <dbl>
##  1 primary Arizona Cardinals Atlanta Falcons         24.10 
##  2 primary Arizona Cardinals Carolina Panthers      227    
##  3 primary Atlanta Falcons   Arizona Cardinals       24.10 
##  4 primary Atlanta Falcons   Carolina Panthers      251    
##  5 primary Atlanta Hawks     Portland Trail Blazers   1.000
##  6 primary Atlanta Hawks     Carolina Panthers      275    
##  7 primary Baltimore Ravens  Charlotte Hornets       21.12 
##  8 primary Baltimore Ravens  Indiana Pacers         287    
##  9 primary Boston Celtics    Memphis Grizzlies       58.05 
## 10 primary Boston Celtics    Indiana Pacers         264    
## # ... with 238 more rows
…
