Analysis of Sport Team Colors, Part 1
…
MLB (baseball),

MLS (American soccer),

NBA (basketball),

NFL (American football), and

NHL (hockey).

(Only the EPL is a non-American league). It lists up to four colors for each team.

teamcolors::teamcolors

## # A tibble: 165 x 6
##    name                 league primary secondary tertiary quaternary
##    <chr>                <chr>  <chr>   <chr>     <chr>    <chr>     
##  1 AFC Bournemouth      epl    #e62333 #000000   <NA>     <NA>      
##  2 Anaheim Ducks        nhl    #010101 #a2aaad   #fc4c02  #85714d   
##  3 Arizona Cardinals    nfl    #97233f #000000   #ffb612  #a5acaf   
##  4 Arizona Coyotes      nhl    #010101 #862633   #ddcba4  <NA>      
##  5 Arizona Diamondbacks mlb    #a71930 #000000   #e3d4ad  <NA>      
##  6 Arsenal              epl    #ef0107 #023474   #9c824a  <NA>      
##  7 Atlanta Braves       mlb    #ce1141 #13274f   <NA>     <NA>      
##  8 Atlanta Falcons      nfl    #a71930 #000000   #a5acaf  #a30d2d   
##  9 Atlanta Hawks        nba    #e13a3e #c4d600   #061922  <NA>      
## 10 Atlanta United FC    mls    #a29061 #80000b   #000000  <NA>      
## # ... with 155 more rows

Putting this data in a tidy format is rather straightforward. 1 Note that I use the name ord to represent ordinality of the colorthat is, primary, secondary, tertiary, or quaternary.

colors_tidy <-
  teamcolors::teamcolors %>%
  tidyr::gather(ord, hex, -name, -league)
colors_tidy

## # A tibble: 660 x 4
##    name                 league ord     hex    
##    <chr>                <chr>  <chr>   <chr>  
##  1 AFC Bournemouth      epl    primary #e62333
##  2 Anaheim Ducks        nhl    primary #010101
##  3 Arizona Cardinals    nfl    primary #97233f
##  4 Arizona Coyotes      nhl    primary #010101
##  5 Arizona Diamondbacks mlb    primary #a71930
##  6 Arsenal              epl    primary #ef0107
##  7 Atlanta Braves       mlb    primary #ce1141
##  8 Atlanta Falcons      nfl    primary #a71930
##  9 Atlanta Hawks        nba    primary #e13a3e
## 10 Atlanta United FC    mls    primary #a29061
## # ... with 650 more rows
…
Of course, a good visualization to accompany a result set is appreciated. Given the set nature of the data set, I think that the UpSetR package is very useful hereit can be used to generate distinctive graphs for set-related data. 4

Neglecting the color black, which is unsurprisingly the most common color, red has the highest count. (Consequently, it is deserving of use as the fill for the bars in the following plot). 5 On the other hand, its a bit unsuprising to me that blue, nor its its brethren in cyan and deepskyblue, isnt among the top 2 or 3. One might argue that the three shades of blue inherently cause classification to be more sparse for it, but this does not seem to suppress the prominence of red, which also has two sister colors in orangered and darkpink.

## # A tibble: 165 x 16
##    black  blue chartreuse darkgoldenrod darkgray deeppink deepskyblue
##    <int> <int>      <int>         <int>    <int>    <int>       <int>
##  1     1     0          0             0        0        0           0
##  2     1     0          0             1        1        0           0
##  3     1     0          0             1        1        0           0
##  4     1     0          0             1        0        0           0
##  5     1     0          0             0        0        0           0
##  6     1     0          0             1        0        0           0
##  7     1     0          0             0        0        0           0
##  8     1     0          0             0        1        0           0
##  9     1     0          0             0        0        0           0
## 10     1     0          0             0        1        0           0
## # ... with 155 more rows, and 9 more variables: gray <int>,
## #   mediumspringgreen <int>, none <int>, orangered <int>, purple <int>,
## #   red <int>, springgreen <int>, white <int>, yellow <int>
…
Color Clustering

Aside from set analysis, this data set seems prime for unsupervised learning, and, more specifically, clustering. While analysis of the RGB values of the colors can be done (and is actually what I tried initially), the results are not as interpretable as I would like it them to be due to the >2-dimensionality nature of such a method. As an alternative, I determined that hue serves as a reasonable all-in-one measure of the essence of a color. It is a radial type of valuethat is, its value can range from 0 to 360 (where red is 0 green is 120, blue is 240). 6

To go along with hue, the ordinality of each color with respect to each team (i.e.primary = 1, secondary = 2, etc.) constitutes a worthwhile secondary feature. Because most teams have at least two colors, but not many have a full palette of four, I decided to limit this clustering analysis to just the primary and secondary colors.

Thus, my cluster analysis takes the following two factors as inputs: + hue (hue), ranging from 0 to 360; and + ordinality (ord), either 1 or 2.

With my setup decided upon, I can implement a a tidy pipeline for statistical analysismaking heavy use of David Robinsons {broom} packageto explore various values of k in a kmeans model for the data. (The packages kmeans vignette provides a really helpful example.)

## # A tibble: 165 x 3
##    name                 primary secondary
##    <chr>                  <dbl>     <dbl>
##  1 AFC Bournemouth       355         0   
##  2 Anaheim Ducks           0       196   
##  3 Arizona Cardinals     345         0   
##  4 Arizona Coyotes         0       351   
##  5 Arizona Diamondbacks  350         0   
##  6 Arsenal               358       213   
##  7 Atlanta Braves        344       220   
##  8 Atlanta Falcons       350         0   
##  9 Atlanta Hawks         358        65.05
## 10 Atlanta United FC      43.38    354   
## # ... with 155 more rows
…
